Perfil da amostra
…
Há diferença entre as médias da variável “anos de estudo” entre os
grupos de intervenção. As tabelas com as médias e os erros-padrão de
cada grupo para cada variável testada estão salvas
“output/tabelas/caracteristica_amostra/tab_cont.xlsx”.

Quantitativo de comorbidades

# A tibble: 27 × 2
   comorbidades  porcentagem
   <chr>               <dbl>
 1 "Hipertensão"       60.5 
 2 "Diabetes"          15.8 
 3 "Artrose"            5.26
 4 "Artrose "           5.26
 5 "Alzheimer"          2.63
 6 "Apneia"             2.63
 7 "Arterite"           2.63
 8 "Artrite"            2.63
 9 "Catarata"           2.63
10 "Depressão"          2.63
# … with 17 more rows
…
